{
   "data":[
      {
         "id":1,
         "attributes":{
            "ChoiceName":"Communication",
            "createdAt":"2023-04-20T04:44:29.739Z",
            "updatedAt":"2023-04-20T04:44:51.466Z",
            "publishedAt":"2023-04-20T04:44:51.459Z",
            "ChoiceToSolutionMap":{
               "data":null
            },
            "previous_questions_connected":{
               "data":[
                  {
                     "id":1,
                     "attributes":{
                        "QuestionName":"Which area do you want to look into?",
                        "createdAt":"2023-04-20T04:42:52.429Z",
                        "updatedAt":"2023-05-04T17:03:57.499Z",
                        "publishedAt":"2023-05-04T17:03:57.494Z"
                     }
                  }
               ]
            },
            "choice_to_question":{
               "data":{
                  "id":2,
                  "attributes":{
                     "QuestionName":"Concerned about quality of speech?",
                     "createdAt":"2023-04-20T04:59:34.934Z",
                     "updatedAt":"2023-04-20T05:00:12.161Z",
                     "publishedAt":"2023-04-20T05:00:12.154Z"
                  }
               }
            }
         }
      },
      {
         "id":2,
         "attributes":{
            "ChoiceName":"Computer Access",
            "createdAt":"2023-04-20T04:57:46.883Z",
            "updatedAt":"2023-04-20T04:57:49.760Z",
            "publishedAt":"2023-04-20T04:57:49.754Z",
            "ChoiceToSolutionMap":{
               "data":null
            },
            "previous_questions_connected":{
               "data":[
                  {
                     "id":1,
                     "attributes":{
                        "QuestionName":"Which area do you want to look into?",
                        "createdAt":"2023-04-20T04:42:52.429Z",
                        "updatedAt":"2023-05-04T17:03:57.499Z",
                        "publishedAt":"2023-05-04T17:03:57.494Z"
                     }
                  }
               ]
            },
            "choice_to_question":{
               "data":null
            }
         }
      },
      {
         "id":4,
         "attributes":{
            "ChoiceName":"Smart Phone Access",
            "createdAt":"2023-04-20T04:58:28.838Z",
            "updatedAt":"2023-04-20T04:58:31.349Z",
            "publishedAt":"2023-04-20T04:58:31.343Z",
            "ChoiceToSolutionMap":{
               "data":null
            },
            "previous_questions_connected":{
               "data":[
                  {
                     "id":1,
                     "attributes":{
                        "QuestionName":"Which area do you want to look into?",
                        "createdAt":"2023-04-20T04:42:52.429Z",
                        "updatedAt":"2023-05-04T17:03:57.499Z",
                        "publishedAt":"2023-05-04T17:03:57.494Z"
                     }
                  }
               ]
            },
            "choice_to_question":{
               "data":null
            }
         }
      },
      {
         "id":3,
         "attributes":{
            "ChoiceName":"Home Access",
            "createdAt":"2023-04-20T04:58:05.134Z",
            "updatedAt":"2023-04-20T05:00:32.030Z",
            "publishedAt":"2023-04-20T05:00:32.022Z",
            "ChoiceToSolutionMap":{
               "data":null
            },
            "previous_questions_connected":{
               "data":[
                  {
                     "id":1,
                     "attributes":{
                        "QuestionName":"Which area do you want to look into?",
                        "createdAt":"2023-04-20T04:42:52.429Z",
                        "updatedAt":"2023-05-04T17:03:57.499Z",
                        "publishedAt":"2023-05-04T17:03:57.494Z"
                     }
                  }
               ]
            },
            "choice_to_question":{
               "data":null
            }
         }
      },
      {
         "id":5,
         "attributes":{
            "ChoiceName":"No, but I want to proactive",
            "createdAt":"2023-04-20T05:15:11.251Z",
            "updatedAt":"2023-04-20T05:15:32.523Z",
            "publishedAt":"2023-04-20T05:15:32.516Z",
            "ChoiceToSolutionMap":{
               "data":null
            },
            "previous_questions_connected":{
               "data":[
                  {
                     "id":2,
                     "attributes":{
                        "QuestionName":"Concerned about quality of speech?",
                        "createdAt":"2023-04-20T04:59:34.934Z",
                        "updatedAt":"2023-04-20T05:00:12.161Z",
                        "publishedAt":"2023-04-20T05:00:12.154Z"
                     }
                  }
               ]
            },
            "choice_to_question":{
               "data":null
            }
         }
      },
      {
         "id":7,
         "attributes":{
            "ChoiceName":"Very concerned",
            "createdAt":"2023-04-20T05:16:45.341Z",
            "updatedAt":"2023-04-20T05:16:46.550Z",
            "publishedAt":"2023-04-20T05:16:46.544Z",
            "ChoiceToSolutionMap":{
               "data":null
            },
            "previous_questions_connected":{
               "data":[
                  {
                     "id":2,
                     "attributes":{
                        "QuestionName":"Concerned about quality of speech?",
                        "createdAt":"2023-04-20T04:59:34.934Z",
                        "updatedAt":"2023-04-20T05:00:12.161Z",
                        "publishedAt":"2023-04-20T05:00:12.154Z"
                     }
                  }
               ]
            },
            "choice_to_question":{
               "data":null
            }
         }
      },
      {
         "id":6,
         "attributes":{
            "ChoiceName":"Somewhat concerned",
            "createdAt":"2023-04-20T05:16:16.463Z",
            "updatedAt":"2023-04-20T05:16:50.658Z",
            "publishedAt":"2023-04-20T05:16:50.651Z",
            "ChoiceToSolutionMap":{
               "data":null
            },
            "previous_questions_connected":{
               "data":[
                  {
                     "id":2,
                     "attributes":{
                        "QuestionName":"Concerned about quality of speech?",
                        "createdAt":"2023-04-20T04:59:34.934Z",
                        "updatedAt":"2023-04-20T05:00:12.161Z",
                        "publishedAt":"2023-04-20T05:00:12.154Z"
                     }
                  }
               ]
            },
            "choice_to_question":{
               "data":{
                  "id":3,
                  "attributes":{
                     "QuestionName":"Somewhat concerned about",
                     "createdAt":"2023-04-20T05:18:12.599Z",
                     "updatedAt":"2023-04-20T05:18:22.287Z",
                     "publishedAt":"2023-04-20T05:18:22.280Z"
                  }
               }
            }
         }
      },
      {
         "id":8,
         "attributes":{
            "ChoiceName":"No longer meets my communication needs",
            "createdAt":"2023-04-20T05:17:15.583Z",
            "updatedAt":"2023-04-20T05:17:16.790Z",
            "publishedAt":"2023-04-20T05:17:16.785Z",
            "ChoiceToSolutionMap":{
               "data":null
            },
            "previous_questions_connected":{
               "data":[
                  {
                     "id":2,
                     "attributes":{
                        "QuestionName":"Concerned about quality of speech?",
                        "createdAt":"2023-04-20T04:59:34.934Z",
                        "updatedAt":"2023-04-20T05:00:12.161Z",
                        "publishedAt":"2023-04-20T05:00:12.154Z"
                     }
                  }
               ]
            },
            "choice_to_question":{
               "data":{
                  "id":4,
                  "attributes":{
                     "QuestionName":"No longer meets my communication needs",
                     "createdAt":"2023-04-20T05:23:01.179Z",
                     "updatedAt":"2023-04-20T05:23:02.472Z",
                     "publishedAt":"2023-04-20T05:23:02.457Z"
                  }
               }
            }
         }
      },
      {
         "id":9,
         "attributes":{
            "ChoiceName":"My speech clarity",
            "createdAt":"2023-04-20T05:19:04.659Z",
            "updatedAt":"2023-04-20T05:19:05.852Z",
            "publishedAt":"2023-04-20T05:19:05.844Z",
            "ChoiceToSolutionMap":{
               "data":null
            },
            "previous_questions_connected":{
               "data":[
                  {
                     "id":3,
                     "attributes":{
                        "QuestionName":"Somewhat concerned about",
                        "createdAt":"2023-04-20T05:18:12.599Z",
                        "updatedAt":"2023-04-20T05:18:22.287Z",
                        "publishedAt":"2023-04-20T05:18:22.280Z"
                     }
                  }
               ]
            },
            "choice_to_question":{
               "data":{
                  "id":5,
                  "attributes":{
                     "QuestionName":"My speech clarity",
                     "createdAt":"2023-04-20T05:25:39.626Z",
                     "updatedAt":"2023-04-20T05:25:47.561Z",
                     "publishedAt":"2023-04-20T05:25:47.556Z"
                  }
               }
            }
         }
      },
      {
         "id":10,
         "attributes":{
            "ChoiceName":"My volume",
            "createdAt":"2023-04-20T05:20:10.665Z",
            "updatedAt":"2023-04-20T05:20:12.130Z",
            "publishedAt":"2023-04-20T05:20:12.077Z",
            "ChoiceToSolutionMap":{
               "data":null
            },
            "previous_questions_connected":{
               "data":[
                  {
                     "id":3,
                     "attributes":{
                        "QuestionName":"Somewhat concerned about",
                        "createdAt":"2023-04-20T05:18:12.599Z",
                        "updatedAt":"2023-04-20T05:18:22.287Z",
                        "publishedAt":"2023-04-20T05:18:22.280Z"
                     }
                  }
               ]
            },
            "choice_to_question":{
               "data":{
                  "id":6,
                  "attributes":{
                     "QuestionName":"Voice amplification can help you speak with less energy and avoid quick fatigue. Click the button below to learn more about it.",
                     "createdAt":"2023-04-20T05:30:33.805Z",
                     "updatedAt":"2023-04-20T05:30:35.174Z",
                     "publishedAt":"2023-04-20T05:30:35.169Z"
                  }
               }
            }
         }
      },
      {
         "id":12,
         "attributes":{
            "ChoiceName":"My breath support for speaking",
            "createdAt":"2023-04-20T05:21:04.204Z",
            "updatedAt":"2023-04-20T05:21:05.730Z",
            "publishedAt":"2023-04-20T05:21:05.724Z",
            "ChoiceToSolutionMap":{
               "data":null
            },
            "previous_questions_connected":{
               "data":[
                  {
                     "id":3,
                     "attributes":{
                        "QuestionName":"Somewhat concerned about",
                        "createdAt":"2023-04-20T05:18:12.599Z",
                        "updatedAt":"2023-04-20T05:18:22.287Z",
                        "publishedAt":"2023-04-20T05:18:22.280Z"
                     }
                  }
               ]
            },
            "choice_to_question":{
               "data":null
            }
         }
      },
      {
         "id":11,
         "attributes":{
            "ChoiceName":"The energy it takes to speak",
            "createdAt":"2023-04-20T05:20:40.320Z",
            "updatedAt":"2023-04-20T05:21:55.082Z",
            "publishedAt":"2023-04-20T05:21:55.076Z",
            "ChoiceToSolutionMap":{
               "data":{
                  "id":5,
                  "attributes":{
                     "Title":"Dummy Title",
                     "createdAt":"2023-04-21T15:09:52.537Z",
                     "updatedAt":"2023-04-21T15:09:54.474Z",
                     "publishedAt":"2023-04-21T15:09:54.466Z"
                  }
               }
            },
            "previous_questions_connected":{
               "data":[
                  {
                     "id":3,
                     "attributes":{
                        "QuestionName":"Somewhat concerned about",
                        "createdAt":"2023-04-20T05:18:12.599Z",
                        "updatedAt":"2023-04-20T05:18:22.287Z",
                        "publishedAt":"2023-04-20T05:18:22.280Z"
                     }
                  }
               ]
            },
            "choice_to_question":{
               "data":null
            }
         }
      },
      {
         "id":15,
         "attributes":{
            "ChoiceName":"Voice preservation",
            "createdAt":"2023-04-20T05:22:18.303Z",
            "updatedAt":"2023-04-20T05:22:22.061Z",
            "publishedAt":"2023-04-20T05:22:22.055Z",
            "ChoiceToSolutionMap":{
               "data":{
                  "id":4,
                  "attributes":{
                     "Title":"voice preservation",
                     "createdAt":"2023-04-20T18:33:13.822Z",
                     "updatedAt":"2023-04-20T18:33:15.712Z",
                     "publishedAt":"2023-04-20T18:33:15.706Z"
                  }
               }
            },
            "previous_questions_connected":{
               "data":[
                  {
                     "id":3,
                     "attributes":{
                        "QuestionName":"Somewhat concerned about",
                        "createdAt":"2023-04-20T05:18:12.599Z",
                        "updatedAt":"2023-04-20T05:18:22.287Z",
                        "publishedAt":"2023-04-20T05:18:22.280Z"
                     }
                  }
               ]
            },
            "choice_to_question":{
               "data":null
            }
         }
      },
      {
         "id":17,
         "attributes":{
            "ChoiceName":"Voice banking",
            "createdAt":"2023-04-20T05:24:15.334Z",
            "updatedAt":"2023-04-20T05:24:16.472Z",
            "publishedAt":"2023-04-20T05:24:16.467Z",
            "ChoiceToSolutionMap":{
               "data":null
            },
            "previous_questions_connected":{
               "data":[
                  {
                     "id":4,
                     "attributes":{
                        "QuestionName":"No longer meets my communication needs",
                        "createdAt":"2023-04-20T05:23:01.179Z",
                        "updatedAt":"2023-04-20T05:23:02.472Z",
                        "publishedAt":"2023-04-20T05:23:02.457Z"
                     }
                  }
               ]
            },
            "choice_to_question":{
               "data":{
                  "id":7,
                  "attributes":{
                     "QuestionName":"Voice Banking",
                     "createdAt":"2023-04-20T05:31:15.633Z",
                     "updatedAt":"2023-04-20T05:31:16.887Z",
                     "publishedAt":"2023-04-20T05:31:16.881Z"
                  }
               }
            }
         }
      },
      {
         "id":18,
         "attributes":{
            "ChoiceName":"Double dipping",
            "createdAt":"2023-04-20T05:24:53.666Z",
            "updatedAt":"2023-04-20T05:24:56.116Z",
            "publishedAt":"2023-04-20T05:24:56.110Z",
            "ChoiceToSolutionMap":{
               "data":null
            },
            "previous_questions_connected":{
               "data":[
                  {
                     "id":4,
                     "attributes":{
                        "QuestionName":"No longer meets my communication needs",
                        "createdAt":"2023-04-20T05:23:01.179Z",
                        "updatedAt":"2023-04-20T05:23:02.472Z",
                        "publishedAt":"2023-04-20T05:23:02.457Z"
                     }
                  }
               ]
            },
            "choice_to_question":{
               "data":null
            }
         }
      },
      {
         "id":19,
         "attributes":{
            "ChoiceName":"Pacing your speech including segmenting syllables",
            "createdAt":"2023-04-20T05:26:14.223Z",
            "updatedAt":"2023-04-20T05:26:15.370Z",
            "publishedAt":"2023-04-20T05:26:15.365Z",
            "ChoiceToSolutionMap":{
               "data":null
            },
            "previous_questions_connected":{
               "data":[
                  {
                     "id":5,
                     "attributes":{
                        "QuestionName":"My speech clarity",
                        "createdAt":"2023-04-20T05:25:39.626Z",
                        "updatedAt":"2023-04-20T05:25:47.561Z",
                        "publishedAt":"2023-04-20T05:25:47.556Z"
                     }
                  }
               ]
            },
            "choice_to_question":{
               "data":null
            }
         }
      },
      {
         "id":20,
         "attributes":{
            "ChoiceName":"Voice amplification",
            "createdAt":"2023-04-20T05:26:37.906Z",
            "updatedAt":"2023-04-20T05:26:39.092Z",
            "publishedAt":"2023-04-20T05:26:39.087Z",
            "ChoiceToSolutionMap":{
               "data":{
                  "id":1,
                  "attributes":{
                     "Title":"Voice Amplification",
                     "createdAt":"2023-04-20T05:43:36.731Z",
                     "updatedAt":"2023-04-21T15:10:37.537Z",
                     "publishedAt":"2023-04-20T05:54:07.946Z"
                  }
               }
            },
            "previous_questions_connected":{
               "data":[
                  {
                     "id":5,
                     "attributes":{
                        "QuestionName":"My speech clarity",
                        "createdAt":"2023-04-20T05:25:39.626Z",
                        "updatedAt":"2023-04-20T05:25:47.561Z",
                        "publishedAt":"2023-04-20T05:25:47.556Z"
                     }
                  },
                  {
                     "id":6,
                     "attributes":{
                        "QuestionName":"Voice amplification can help you speak with less energy and avoid quick fatigue. Click the button below to learn more about it.",
                        "createdAt":"2023-04-20T05:30:33.805Z",
                        "updatedAt":"2023-04-20T05:30:35.174Z",
                        "publishedAt":"2023-04-20T05:30:35.169Z"
                     }
                  }
               ]
            },
            "choice_to_question":{
               "data":null
            }
         }
      },
      {
         "id":21,
         "attributes":{
            "ChoiceName":"Producing fewer words per breath",
            "createdAt":"2023-04-20T05:27:19.550Z",
            "updatedAt":"2023-04-20T05:27:20.664Z",
            "publishedAt":"2023-04-20T05:27:20.657Z",
            "ChoiceToSolutionMap":{
               "data":null
            },
            "previous_questions_connected":{
               "data":[
                  {
                     "id":5,
                     "attributes":{
                        "QuestionName":"My speech clarity",
                        "createdAt":"2023-04-20T05:25:39.626Z",
                        "updatedAt":"2023-04-20T05:25:47.561Z",
                        "publishedAt":"2023-04-20T05:25:47.556Z"
                     }
                  }
               ]
            },
            "choice_to_question":{
               "data":null
            }
         }
      },
      {
         "id":22,
         "attributes":{
            "ChoiceName":"Over-articulating some sounds",
            "createdAt":"2023-04-20T05:28:44.066Z",
            "updatedAt":"2023-04-20T05:28:45.313Z",
            "publishedAt":"2023-04-20T05:28:45.306Z",
            "ChoiceToSolutionMap":{
               "data":null
            },
            "previous_questions_connected":{
               "data":[
                  {
                     "id":5,
                     "attributes":{
                        "QuestionName":"My speech clarity",
                        "createdAt":"2023-04-20T05:25:39.626Z",
                        "updatedAt":"2023-04-20T05:25:47.561Z",
                        "publishedAt":"2023-04-20T05:25:47.556Z"
                     }
                  }
               ]
            },
            "choice_to_question":{
               "data":null
            }
         }
      },
      {
         "id":23,
         "attributes":{
            "ChoiceName":"Learn about quick access tools for clarifying your message",
            "createdAt":"2023-04-20T05:29:08.024Z",
            "updatedAt":"2023-04-20T05:29:09.164Z",
            "publishedAt":"2023-04-20T05:29:09.158Z",
            "ChoiceToSolutionMap":{
               "data":null
            },
            "previous_questions_connected":{
               "data":[
                  {
                     "id":5,
                     "attributes":{
                        "QuestionName":"My speech clarity",
                        "createdAt":"2023-04-20T05:25:39.626Z",
                        "updatedAt":"2023-04-20T05:25:47.561Z",
                        "publishedAt":"2023-04-20T05:25:47.556Z"
                     }
                  }
               ]
            },
            "choice_to_question":{
               "data":{
                  "id":8,
                  "attributes":{
                     "QuestionName":"Learn about backup communication tool",
                     "createdAt":"2023-04-20T05:37:30.172Z",
                     "updatedAt":"2023-04-20T05:37:33.860Z",
                     "publishedAt":"2023-04-20T05:37:33.838Z"
                  }
               }
            }
         }
      },
      {
         "id":14,
         "attributes":{
            "ChoiceName":"Message banking",
            "createdAt":"2023-04-20T05:21:42.435Z",
            "updatedAt":"2023-04-20T05:31:59.666Z",
            "publishedAt":"2023-04-20T05:31:59.660Z",
            "ChoiceToSolutionMap":{
               "data":null
            },
            "previous_questions_connected":{
               "data":[
                  {
                     "id":4,
                     "attributes":{
                        "QuestionName":"No longer meets my communication needs",
                        "createdAt":"2023-04-20T05:23:01.179Z",
                        "updatedAt":"2023-04-20T05:23:02.472Z",
                        "publishedAt":"2023-04-20T05:23:02.457Z"
                     }
                  }
               ]
            },
            "choice_to_question":{
               "data":null
            }
         }
      },
      {
         "id":24,
         "attributes":{
            "ChoiceName":"Model talker",
            "createdAt":"2023-04-20T05:34:24.335Z",
            "updatedAt":"2023-04-20T05:34:25.388Z",
            "publishedAt":"2023-04-20T05:34:25.382Z",
            "ChoiceToSolutionMap":{
               "data":null
            },
            "previous_questions_connected":{
               "data":[
                  {
                     "id":7,
                     "attributes":{
                        "QuestionName":"Voice Banking",
                        "createdAt":"2023-04-20T05:31:15.633Z",
                        "updatedAt":"2023-04-20T05:31:16.887Z",
                        "publishedAt":"2023-04-20T05:31:16.881Z"
                     }
                  }
               ]
            },
            "choice_to_question":{
               "data":null
            }
         }
      },
      {
         "id":25,
         "attributes":{
            "ChoiceName":"Acapela",
            "createdAt":"2023-04-20T05:34:49.318Z",
            "updatedAt":"2023-04-20T05:34:50.428Z",
            "publishedAt":"2023-04-20T05:34:50.423Z",
            "ChoiceToSolutionMap":{
               "data":null
            },
            "previous_questions_connected":{
               "data":[
                  {
                     "id":7,
                     "attributes":{
                        "QuestionName":"Voice Banking",
                        "createdAt":"2023-04-20T05:31:15.633Z",
                        "updatedAt":"2023-04-20T05:31:16.887Z",
                        "publishedAt":"2023-04-20T05:31:16.881Z"
                     }
                  }
               ]
            },
            "choice_to_question":{
               "data":null
            }
         }
      },
      {
         "id":26,
         "attributes":{
            "ChoiceName":"Voice keeper",
            "createdAt":"2023-04-20T05:35:06.349Z",
            "updatedAt":"2023-04-20T05:35:07.405Z",
            "publishedAt":"2023-04-20T05:35:07.400Z",
            "ChoiceToSolutionMap":{
               "data":null
            },
            "previous_questions_connected":{
               "data":[
                  {
                     "id":7,
                     "attributes":{
                        "QuestionName":"Voice Banking",
                        "createdAt":"2023-04-20T05:31:15.633Z",
                        "updatedAt":"2023-04-20T05:31:16.887Z",
                        "publishedAt":"2023-04-20T05:31:16.881Z"
                     }
                  }
               ]
            },
            "choice_to_question":{
               "data":null
            }
         }
      },
      {
         "id":27,
         "attributes":{
            "ChoiceName":"Speak Unique",
            "createdAt":"2023-04-20T05:35:29.014Z",
            "updatedAt":"2023-04-20T05:35:30.206Z",
            "publishedAt":"2023-04-20T05:35:30.200Z",
            "ChoiceToSolutionMap":{
               "data":null
            },
            "previous_questions_connected":{
               "data":[
                  {
                     "id":7,
                     "attributes":{
                        "QuestionName":"Voice Banking",
                        "createdAt":"2023-04-20T05:31:15.633Z",
                        "updatedAt":"2023-04-20T05:31:16.887Z",
                        "publishedAt":"2023-04-20T05:31:16.881Z"
                     }
                  }
               ]
            },
            "choice_to_question":{
               "data":null
            }
         }
      }
   ],
   "meta":{
      "pagination":{
         "page":1,
         "pageSize":25,
         "pageCount":2,
         "total":30
      }
   }
}